"NOISE","","REPAIR GUYS","1001","A. J. POPE & SONS","A. J. POPE & SONS","34 FORE STREET","","BRIXHAM","DEVON","TQ5 8DZ","01803 853165","","support@thenoiseuk.com","","5890029"
"NOISE","","REPAIR GUYS","1002","A. N. S.","A. N. S. LTD","OLD MARSH FARM BARNS  SUITE 3 OFF CYARD","WELSH ROAD","SEALAND","FLINTSHIRE  N. WALES","CH5 3UN","01244 288118","01244 288577","s.ibbotson4@btinternet.com","SIMON IBBOTSON","5890034"
"NOISE","","ANCRUM","1003","ALEX CARSWELL","ALEX CARSWELL","62 KEPTIE STREET","","ARBROATH","ANGUS","DD11 3AG","1241875301","","","","5890244"
"NOISE","","","1004","AMAZON","AMAZON.CO.UK","PATRIOT COURT","1 - 9  GROVE ROAD","SLOUGH","BERKSHIRE","SL1 1QP","0208 6369459","","support@thenoiseuk.com","NICK FOY","5890028"
"NOISE","","Gwynne TV","1005","ANDREWS TV","ANDREWS TV","28 HIGH STREET","","COLCHESTER","","CO1 1DB","01206 767 600","","","","5890097"
"NOISE","","Gwynne TV","1006","ANGLIA RUSKIN UNIVERSITY","ANGLIA RUSKIN UNIVERSITY","UNIVERSITY ACCOMMODATION SERVICES","BISHOP HALL LANE","CHELMSFORD","ESSEX","CM1 1SQ","01245 683185","","Christopher.geeves@anglia.ac.uk","CHRISTOPHER GEEVES","5890136"
"NOISE","","","1007","AQUAVISION","AQUAVISION","UNIT 7  RIVERPARK INDUSTRIAL ESTATE","BILLET LANE","BERKHAMSTEAD","HERTFORDSHIRE","HP4 1HL","01442 872665","","richard@aquavisiondistribution.co.uk","","5890120"
"NOISE","","","1008","ARGOS","ARGOS","489-499 AVEBURY BOULEVARD","","MILTON KEYNES","BUCKINGHAMSHIRE","MK9 2NW","01908 296307","","<Null>","CLARE O""DEA","5890006"
"NOISE","ARGOS","","1008","ARGOS","ARGOS - SYKES","CALDER HOUSE  599 CALDER ROAD","","EDINBURGH","SCOTLAND","EH11 4GA","","","","BARRIE WILKINS",""
"NOISE","","JF Associates","1009","B & O OXFORD","B & O OXFORD","6 SOUTH PARADE","","OXFORD","","OX2 7JL","01865 511241","","","","5890135"
"NOISE","","BIRMINGHAM SPECIALISED SERVICES","1010","B & O SHREWSBURY","B & O SHREWSBURY","6 HIGH STREET","","SHREWSBURY","","SY1 1SP","01743 355585","","","","5890058"
"NOISE","","","1011","B B ADAMS","B B ADAMS","","","NORWICH","NORFOLK","","01603 880271","","","MATTHEW DIMSEY","5890132"
"NOISE","BENNETTS RETAIL LTD. NORWICH","Gwynne TV","1012","BENNETTS RETAIL LTD","BENNETTS RETAIL LTD. BURY ST EDMUNDS","ROBERT BOBY WAY","","BURY ST EDMUNDS","","","0808 202 6012","","support@thenoiseuk.com","","5890020"
"NOISE","BENNETTS RETAIL LTD. NORWICH","Gwynne TV","1012","BENNETTS RETAIL LTD","BENNETTS RETAIL LTD. MARTLESHAM HEATH","BEARDMORE PARK","","MARTLESHAM HEATH","","","0808 202 6008","","support@thenoiseuk.com","","5890021"
"NOISE","","Gwynne TV","1012","BENNETTS RETAIL LTD","BENNETTS RETAIL LTD. NORWICH","35 BARNARD ROAD","BOWTHRORPE","NORWICH","NORFOLK","NR5 9JB","0845 458 2000","","support@thenoiseuk.com","BILL PARKES","5890017"
"NOISE","BENNETTS RETAIL LTD. NORWICH","Gwynne TV","1012","BENNETTS RETAIL LTD","BENNETTS RETAIL LTD. RIVERSIDE","RIVERSIDE RETAIL PARRK","VICTORIA ROAD","","","","0808 202 6004","","support@thenoiseuk.com","","5890018"
"NOISE","BENNETTS RETAIL LTD. NORWICH","Gwynne TV","1012","BENNETTS RETAIL LTD","BENNETTS RETAIL LTD. TURNER RISE","TURNER RISE RETAIL PARK","PETROLEA CLOSE","","","","0808 202 6010","","support@thenoiseuk.com","","5890019"
"NOISE","","","1013","BIG WARRANTIES","BIG WARRANTIES LIMITED","SUITE 5 & 6 RICHMOND HOUSE","RICHMOND HILL","BOURNMOUTH","","BH2 6EZ","0800 7797444","","customerservice@natsatserv.co.uk","PETER KING","5890118"
"NOISE","","BIRMINGHAM SPECIALISED SERVICES","1014","BIRMINGHAM SONY CENTRE","BIRMINGHAM SONY CENTRE","160 162 CORPORATION STREET","","BIRMINGHAM","","B4 6TB","1212360679","","","TOM BROOKS","5890123"
"NOISE","","","1015","BRIGHTHOUSE","BRIGHTHOUSE","","","","","","","","","",""
"NOISE","BRIGHTHOUSE","MTV SERVICE","1015","BRIGHTHOUSE","BRIGHTHOUSE BOSTON","6/8 STRAIT BARGATE","","BOSTON","","PE21 6EE","01205 310727","","","","5890096"
"NOISE","BRIGHTHOUSE","MTV SERVICE","1015","BRIGHTHOUSE","BRIGHTHOUSE GRIMSBY","69 VICTORIA STREET","","GRIMSBY","","DN31 1BL","01472 240539","","","","5890095"
"NOISE","BRIGHTHOUSE","MTV SERVICE","1015","BRIGHTHOUSE","BRIGHTHOUSE LINCOLN","6 CORNHILL","CORNHILL PAVEMENT","LINCOLN","","LN5 7HE","01522 511485","","","","5890093"
"NOISE","BRIGHTHOUSE","MTV SERVICE","1015","BRIGHTHOUSE","BRIGHTHOUSE SCUNTHORPE","115/117 HIGH STREET","","SCUNTHORPE","","DN15 6LY","01724 847103","","","","5890094"
"NOISE","","BIRMINGHAM SPECIALISED SERVICES","1016","BSS CUSTOMER ACCOUNT","BSS CUSTOMER ACCOUNT","UNIT 3  ACE BUSINESS PARK","","BIRMINGHAM","WEST MIDLANDS","B33 0LD","0121 7899991","","","",""
"NOISE","","","1017","CASTELAN","CASTELAN LTD","ALPHA HOUSE","SUNNYSIDE ROAD NORTH","WESTON SUPER MARE","","BS23 3QY","","","","ALAN BURTON","5890134"
"NOISE","","MTV SERVICE","1018","COMET LINCOLN","COMET LINCOLN","UNIT 1 TRITTON RETAIL PARK","TRITTON LANE","LINCOLN","","LN6 7AN","0844 800 95 95","01522 559 805","","LAWRENCE","5890133"
"NOISE","","Visual Service Centre (Manchester)","1019","COMPUDAL","COMPUDAL LTD","UNIT 2C  BROAD OAK BUSINESS PARK","ASHBURTON ROAD WEST","MANCHESTER","","M17 1RW","0161 873 4100","0161 873 4101","support@thenoiseuk.com","","5890033"
"NOISE","","BIRMINGHAM SPECIALISED SERVICES","1020","COVENTRY SONY CENTRE","COVENTRY SONY CENTRE","66 LOWER PRECINCT","CORPORATION STREET","COVENTRY","WEST MIDLANDS","CV1 1DX","02476 559111","","coventry@sonycentres.co.uk","","669111"
"NOISE","","REPAIR GUYS","1021","CTS","CTS","131 MAGDELINE ROAD","","EXETER","DEVON","EX2 4TN","01392 272575","","","PETER THORNE","5890087"
"NOISE","DIXONS RETAIL PLC","","1022","CURRYS","CURRYS BANGOR","UNIT 1 CLANDEBOYE RETAIL PARK","","BANGOR","NORTHERN IRELAND","BT19 2HR","","","","","5890007"
"NOISE","DIXONS RETAIL PLC","","1022","CURRYS","CURRYS BECKTON","7 BECKTON TRIANGLE RETAIL PARK","5 CLAPSGATE LANE","BECKTON","LONDON","E6 6LH","","","","","5890007"
"NOISE","DIXONS RETAIL PLC","","1022","CURRYS","CURRYS BIRMINGHAM J9","AXLESTREE WAY","WEDNESBURY","BIRMINGHAM","","WS10 9QY","01215 673081","","","","5890007"
"NOISE","DIXONS RETAIL PLC","","1022","CURRYS","CURRYS BOSTON","UNIT 1A ALBAN RETAIL PARK","","BOSTON","LINCOLNSHIRE","PE21 7NN","01205 310150","","","","5890007"
"NOISE","DIXONS RETAIL PLC","","1022","CURRYS","CURRYS BRADFORD","FORSTER SQUARE","","BRADFORD","WEST YORKSHIRE","BD1 4JB","","","","","5890007"
"NOISE","DIXONS RETAIL PLC","","1022","CURRYS","CURRYS BRIGHTON","184-186 OLD SHOREHAM","HOVE","BRIGHTON","EAST SUSSEX","BN3 7DX","","","","","5890007"
"NOISE","DIXONS RETAIL PLC","","1022","CURRYS","CURRYS BULLRING","MSU9/SU714 UPPER WEST MALL","BULLRING CENTRE","BIRMINGHAM","","B5 4BG","0121 616 6751","","","","5890007"
"NOISE","DIXONS RETAIL PLC","","1022","CURRYS","CURRYS CHARLTON","UNIT F STONE LAKE RETAIL PARK","WOOLWICH ROAD","CHARLTON","LONDON","SE7 8LU","","","","","5890007"
"NOISE","DIXONS RETAIL PLC","","1022","CURRYS","CURRYS CHELMSFORD","UNIT G","CHELMER VILLAGE RETAIL PARK","CHELMSFORD","ESSEX","CM2 6XE","","","","","5890007"
"NOISE","DIXONS RETAIL PLC","","1022","CURRYS","CURRYS CHELTENHAM","UNIT B TEWKESBURY ROAD","","CHELTENHAM","GLOUCESTERSHIRE","GL51 9DU","","","","","5890007"
"NOISE","DIXONS RETAIL PLC","","1022","CURRYS","CURRYS COLLIERS WOOD","UNIT 4 PRIORY RETAIL PARK","MERTON","COLLIERS WOOD","SURREY","SW19 2NX","","","","","5890007"
"NOISE","DIXONS RETAIL PLC","","1022","CURRYS","CURRYS CRAWLEY","UNTI 4A COUNTY OAK RETAIL PARK","LONDON ROAD","CRAWLEY","","RH11 7XN","","","","","5890007"
"NOISE","DIXONS RETAIL PLC","","1022","CURRYS","CURRYS CROYDON","12 TROJAN WAY","PURLEY WAY","CROYDON","SURREY","CR0 4XL","","","","","5890007"
"NOISE","DIXONS RETAIL PLC","","1022","CURRYS","CURRYS DONCASTER","UNIT 1 DANUM RETAIL PARK","YORK ROAD","DONCASTER","SOUTH YORKSHIRE","DN5 8AS","","","","","5890007"
"NOISE","DIXONS RETAIL PLC","","1022","CURRYS","CURRYS DURHAM","UNIT 2 DURHAM CITY RETAIL PARK","","DURHAM","CO. DURHAM","DH1 2RW","","","","","5890007"
"NOISE","DIXONS RETAIL PLC","","1022","CURRYS","CURRYS EASTBOURNE","UNIT 2  BROADWATER WAY","HAMPDEN PARK","EASTBOURNE","","BN22 9PW","","","dutymanager_2176@currysstores.co.uk","","5890007"
"NOISE","DIXONS RETAIL PLC","","1022","CURRYS","CURRYS EDINBURGH","UNIT 6 CRAIGLEITH RETAIL PARK","30 SOUTH GROATHILL AVENUE","EDINBURGH","SCOTLAND","EH4 2LN","","","","","5890007"
"NOISE","DIXONS RETAIL PLC","","1022","CURRYS","CURRYS GATESHEAD","UNIT 2  RETAIL WORLD","TEAM VALLEY","GATESHEAD","TYNE WEAR","NE11 0BD","","","","","5890007"
"NOISE","DIXONS RETAIL PLC","","1022","CURRYS","CURRYS GLOUCESTER","EASTERN AVENUE","","GLOUCESTER","GLOUCESTERSHIRE","GL4 3EA","","","","","5890007"
"NOISE","DIXONS RETAIL PLC","","1022","CURRYS","CURRYS GRANTHAM","LONDON ROAD","","GRANTHAM","LINCOLNSHIRE","NG31 6HR","","","","","5890007"
"NOISE","DIXONS RETAIL PLC","","1022","CURRYS","CURRYS GRIMSBY","HIGH POINT RETAIL PARK","VICTORIA STREET NORTH","GRIMSBY","HUMBERSIDE","DN31 1NT","01472 241183","","","","5890007"
"NOISE","DIXONS RETAIL PLC","","1022","CURRYS","CURRYS HARLOW","UNIT 4 QUENSGATE RETAIL PARK","EDINBURGH WAY","HARLOW","ESSEX","CM20 2DA","","","","","5890007"
"NOISE","DIXONS RETAIL PLC","","1022","CURRYS","CURRYS HIGHGATE","UPPER CONYBERE STREET  HIGHGATE","MIDDLEWAY","BIRMINGHAM","","B12 0EB","0121 666 4101","","","","5890007"
"NOISE","DIXONS RETAIL PLC","","1022","CURRYS","CURRYS HULL","UNIT 8 THE JUNCTION (PHASE 3)","","HULL","EAST RIDING OF YORKSHIRE","HU3 4SA","","","","","5890007"
"NOISE","DIXONS RETAIL PLC","","1022","CURRYS","CURRYS IPSWICH","THE INTERGHANGE RETAIL PARK","","IPSWICH","SUFFOLK","IP8 3TT","","","","","5890007"
"NOISE","DIXONS RETAIL PLC","","1022","CURRYS","CURRYS LEICESTER","UNIT 1 FOSSE PARK SOUTH","EVERARD WAY NARBOROUGH","LEICESTER","LEICESTERSHIRE","LE19 1UT","","","","","5890007"
"NOISE","DIXONS RETAIL PLC","","1022","CURRYS","CURRYS LINCOLN","UNIT 4 TRITTON RETAIL PARK","TRITTON ROAD","LINCOLN","LINCOLNSHIRE","LN6  7AN","01522 525509","","","","5890007"
"NOISE","DIXONS RETAIL PLC","","1022","CURRYS","CURRYS LIVERPOOL","UNIT F NEW MERSEY RETAIL PARK","SPEKE","LIVERPOOL","MERSEYSIDE","L24 8QB","","","","","5890007"
"NOISE","DIXONS RETAIL PLC","","1022","CURRYS","CURRYS LONDON","U4 STAPLES CORNER RETAIL PARK","GERON WAY","LONDON","GREATER LONDON","NW2 6LU","","","","","5890007"
"NOISE","DIXONS RETAIL PLC","","1022","CURRYS","CURRYS LOUGHBOROUGH 2 IN 1","REGENTS PLACE RT PRK","BROAD STREET","LOUGHBOROUGH","","LE11 5PF","01509 618531","","dutymanager_2826@currysstores.co.uk","","5890007"
"NOISE","DIXONS RETAIL PLC","","1022","CURRYS","CURRYS LUTON","CHAUL END LANE","DUNSTABLE ROAD","LUTON","BEDFORDSHIRE","LU4 8EZ","","","","","5890007"
"NOISE","DIXONS RETAIL PLC","","1022","CURRYS","CURRYS MANCHESTER","UNIT J  WHITE CITY PARK","CHESTER ROAD TRAFFORD","MANCHESTER","GREATER MANCHESTER","M16 0RP","","","","","5890007"
"NOISE","DIXONS RETAIL PLC","","1022","CURRYS","CURRYS MERRYHILL","UNIT 8  MERRYHILL CENTRE","BRIERLEY HILL","DUDLEY","WEST MIDLANDS","DY5 1SY","01384 265123","","","","5890007"
"NOISE","DIXONS RETAIL PLC","","1022","CURRYS","CURRYS MORFA RT PRK","BRUNEL WAY","MORFA RETAIL PARK","SWANSEA","","SA1 7DS","01792 482771","","","","5890007"
"NOISE","DIXONS RETAIL PLC","","1022","CURRYS","CURRYS NEWARK","NORTHGATE RETAIL PARK","NORTHGATE","NEWARK","LINCOLNSHIRE","NG24 1GA","01636 614904","","","","5890007"
"NOISE","DIXONS RETAIL PLC","","1022","CURRYS","CURRYS NEWTOWN ABBEY","UNIT 2 ABBEY RETAIL PARK","CHURCH ROAD","NEWTOWN ABBEY","NORTHERN IRELAND","BT36 7GU","","","","","5890007"
"NOISE","DIXONS RETAIL PLC","","1022","CURRYS","CURRYS NOTTINGHAM","UNIT 6C","CASTLE MEADOW RETAIL PARK","NOTTINGHAM","NOTTINGHAMSHIRE","NG7 1GX","","","","","5890007"
"NOISE","DIXONS RETAIL PLC","","1022","CURRYS","CURRYS OXFORD","UNIT 1 LAMARSH ROAD","","OXFORD","OXFORDSHIRE","OX2 0HY","","","","","5890007"
"NOISE","DIXONS RETAIL PLC","","1023","CURRYS PC WORLD","CURRYS PC WORLD ASHTON UNDER LYNE","UNIT 17 SNIPE RETAIL PARK","MANCHESTER ROAD","ASHTON UNDER LYNE","MANCHESTER","OL7 0DN","","","","","5890007"
"NOISE","DIXONS RETAIL PLC","","1023","CURRYS PC WORLD","CURRYS PC WORLD BATH","UNIT B WESTON LOCK RETAIL PARK","LOWER BRISTOL ROAD","BATH","AVON","BA2 1EP","","","","","5890007"
"NOISE","DIXONS RETAIL PLC","","1023","CURRYS PC WORLD","CURRYS PC WORLD BLACKPOOL","UNIT A SQUIRESGATE RETAIL PARK","","BLACKPOOL","LANCASHIRE","FY4 3RN","","","","","5890007"
"NOISE","DIXONS RETAIL PLC","","1023","CURRYS PC WORLD","CURRYS PC WORLD BRISTOL","UNIT 1","CRIBBS CAUSEWAY RETAIL PARK","BRISTOL","AVON","BS34 5TS","","","","","5890007"
"NOISE","DIXONS RETAIL PLC","","1023","CURRYS PC WORLD","CURRYS PC WORLD BROMBOROUGH","UNIT A CROFT RETAIL PARK","THE WIRRAL","BROMBOROUGH","MERSEYSIDE","CH62 3PN","","","","","5890007"
"NOISE","DIXONS RETAIL PLC","","1023","CURRYS PC WORLD","CURRYS PC WORLD CAMBRIDGE","UNIT 1 CAMBRIDGE RETAIL PARK","NEWMARKET ROAD","CAMBRIDGE","CAMBRIDGESHIRE","CB5 8WR","","","","","5890007"
"NOISE","DIXONS RETAIL PLC","","1023","CURRYS PC WORLD","CURRYS PC WORLD CANTERBURY","CANTERBURY CITY RETAIL PARK","VAUXHALL ROAD OFF STURRY RD","CANTERBURY","KENT","CT1 1WZ","","","","","5890007"
"NOISE","DIXONS RETAIL PLC","","1023","CURRYS PC WORLD","CURRYS PC WORLD CARDIFF","501 NEWPORT ROAD","ROATH","CARDIFF","WALES","CF23 9AD","","","","","5890007"
"NOISE","DIXONS RETAIL PLC","","1023","CURRYS PC WORLD","CURRYS PC WORLD CHESTER","UNIT 3 DIVA RETAIL CENTRE","STENDALL ROAD","CHESTER","CHESHIRE","CH1 4LU","","","","","5890007"
"NOISE","DIXONS RETAIL PLC","","1023","CURRYS PC WORLD","CURRYS PC WORLD CHINGFORD","UNIT 1 CORKTREE RETAIL PARK","HALL LANE","CHINGFORD","LONDON","E4 8JA","","","","","5890007"
"NOISE","DIXONS RETAIL PLC","","1023","CURRYS PC WORLD","CURRYS PC WORLD CRAYFORD","5 TOWER RETAIL PARK","CRAYFORD ROAD","CRAYFORD","KENT","DA1 4LD","","","","","5890007"
"NOISE","DIXONS RETAIL PLC","","1023","CURRYS PC WORLD","CURRYS PC WORLD DUDLEY","UNITS 6-8  MERRYHILL CENTRE","BRIERLEY HILL","DUDLEY","WEST MIDLANDS","DY5 1SY","","","","","5890007"
"NOISE","DIXONS RETAIL PLC","","1023","CURRYS PC WORLD","CURRYS PC WORLD DUNDEE","UNIT 3","KINGSWAY WEST RETAIL PARK","DUNDEE","SCOTLAND","DD3 8RX","","","","","5890007"
"NOISE","DIXONS RETAIL PLC","","1023","CURRYS PC WORLD","CURRYS PC WORLD FARNBOROUGH","UNIT 8 FARNBOROUGH GATE","FARNBOROUGH ROAD","FARNBOROUGH","HAMPSHIRE","GU14 8BL","","","","","5890007"
"NOISE","DIXONS RETAIL PLC","","1023","CURRYS PC WORLD","CURRYS PC WORLD FULHAM","UNIT A HURLINGHAM RETAIL PARK","WANDSWORTH BRIDGE ROAD","FULHAM","MIDDLESEX","SW6 3DU","","","","","5890007"
"NOISE","DIXONS RETAIL PLC","","1023","CURRYS PC WORLD","CURRYS PC WORLD GLASGOW","UNIT G BRAEHEAD RETAIL PARK","130 -136 KINGS INCH DRIVE","GLASGOW","SCOTLAND","G51 4BT","","","","","5890007"
"NOISE","DIXONS RETAIL PLC","","1023","CURRYS PC WORLD","CURRYS PC WORLD HALIFAX","UNIT C CHARLESTON ROAD","","HALIFAX","WEST YORKSHIRE","HX3 9XQ","","","","","5890007"
"NOISE","DIXONS RETAIL PLC","","1023","CURRYS PC WORLD","CURRYS PC WORLD HAMILTON","UNIT 7","PALACE GROUNDS RETAIL PARK","HAMILTON","SCOTLAND","ML3 6AD","","","","","5890007"
"NOISE","DIXONS RETAIL PLC","","1023","CURRYS PC WORLD","CURRYS PC WORLD HARTLEPOOL","UNIT 5 ANCHOR RETAIL PARK","","HARTLEPOOL","CLEVELAND","TS24 0XR","","","","","5890007"
"NOISE","DIXONS RETAIL PLC","","1023","CURRYS PC WORLD","CURRYS PC WORLD HAYES","HAYES BRIDGE RETAIL PARK","UXBRIDGE ROAD","HAYES","MIDDLESEX","UB4 0RH","","","","","5890007"
"NOISE","DIXONS RETAIL PLC","","1023","CURRYS PC WORLD","CURRYS PC WORLD LEEDS","WEST YORKSHIRE RETAIL PARK","HOLDENING WAY BIRSTALL","LEEDS","WEST YORKSHIRE","WF17 9AD","","","","","5890007"
"NOISE","DIXONS RETAIL PLC","","1023","CURRYS PC WORLD","CURRYS PC WORLD LIVERPOOL","RACECOURSE RETAIL PARK","ORMSKIRK ROAD AINTREE","LIVERPOOL","MERSEYSIDE","L9 5AL","","","","","5890007"
"NOISE","DIXONS RETAIL PLC","","1023","CURRYS PC WORLD","CURRYS PC WORLD LLANELLI","UNIT 1","PARC PEMBERTON RETAIL PARK","LLANELLI","WALES","SA14 9UZ","","","","","5890007"
"NOISE","DIXONS RETAIL PLC","","1023","CURRYS PC WORLD","CURRYS PC WORLD MILTON KEYNES","THE PLACE RETAIL PARK","ELDERGATE","MILTON KEYNES","BUCKINGHAMSHIRE","MK9 1EN","","","","","5890007"
"NOISE","DIXONS RETAIL PLC","","1023","CURRYS PC WORLD","CURRYS PC WORLD NEW MALDEN","UNIT 2 BURLINGTON RETAIL PARK","BURLINGTON ROAD","NEW MALDEN","SURREY","KT3 4PA","","","","","5890007"
"NOISE","DIXONS RETAIL PLC","","1023","CURRYS PC WORLD","CURRYS PC WORLD NORTH SHIELDS","UNIT D2 SILVERLINK RETAIL PARK","COAST ROAD WALLS END","NORTH SHIELDS","TYNE WEAR","NE28 9ND","","","","","5890007"
"NOISE","DIXONS RETAIL PLC","","1023","CURRYS PC WORLD","CURRYS PC WORLD OLDHAM","UNIT 6 ELK MILL RETAIL PARK","MANSFIELD ROAD","OLDHAM","LANCASHIRE","OL2 5HX","","","","","5890007"
"NOISE","DIXONS RETAIL PLC","","1023","CURRYS PC WORLD","CURRYS PC WORLD POOLE","UNIT 8/9","WESSEX GATE RETAIL PARK","POOLE","DORSET","BH15 3TE","","","","","5890007"
"NOISE","DIXONS RETAIL PLC","","1023","CURRYS PC WORLD","CURRYS PC WORLD PRESTON","UNIT 3-4 THE CAPITAL CENTRE","LONDON WAY WALTON LE DALE","PRESTON","LANCASHIRE","PR5 4AW","","","","","5890007"
"NOISE","DIXONS RETAIL PLC","","1023","CURRYS PC WORLD","CURRYS PC WORLD ROTHERHAM","RETAIL WORLD STADIUM WAY","PARKGATE","ROTHERHAM","SOUTH YORKSHIRE","S60 1TG","","","","","5890007"
"NOISE","DIXONS RETAIL PLC","","1023","CURRYS PC WORLD","CURRYS PC WORLD RUISLIP","STONEFIELD WAY","VICTORIA ROAD","RUISLIP","MIDDLESEX","HA4 0EL","","","","","5890007"
"NOISE","DIXONS RETAIL PLC","","1023","CURRYS PC WORLD","CURRYS PC WORLD SOUTHAMPTON","UNIT 2/3 TOLLBAR WAY","HEDGE END RETAIL PARK","SOUTHAMPTON","HAMPSHIRE","SO30 2UH","","","","","5890007"
"NOISE","DIXONS RETAIL PLC","","1023","CURRYS PC WORLD","CURRYS PC WORLD STAINES","UNIT N6 TWO RIVERS RETAIL PARK","MUSTARD HILL ROAD","STAINES","SURREY","TW18 4WA","","","","","5890007"
"NOISE","DIXONS RETAIL PLC","","1023","CURRYS PC WORLD","CURRYS PC WORLD STOCKTON-ON-TEES","UNIT 1/2 TEESSIDE RETAIL PARK","","STOCKTON-ON-TEES","TEESSIDE","TS17 7BQ","","","","","5890007"
"NOISE","DIXONS RETAIL PLC","","1023","CURRYS PC WORLD","CURRYS PC WORLD SWANSEA","UNIT 8","PONTARDDULAIS RETAIL PARK","SWANSEA","WALES","SA5 4BA","","","","","5890007"
"NOISE","DIXONS RETAIL PLC","","1023","CURRYS PC WORLD","CURRYS PC WORLD TORQUAY","UNIT 2","RIVIERA WAY RETAIL PARK","TORQUAY","DEVON","TQ2 7AP","","","","","5890007"
"NOISE","DIXONS RETAIL PLC","","1023","CURRYS PC WORLD","CURRYS PC WORLD WREXHAM","UNIT E PLAS COCH RETAIL PARK","CLWYD","WREXHAM","WALES","LL11 2BA","","","","","5890007"
"NOISE","DIXONS RETAIL PLC","","1022","CURRYS","CURRYS PERRY BARR","ONE STEP SHOPPING CENTRE","PERRY BARR","BIRMINGHAM","","B42 1AA","0121 331 8081","","","","5890007"
"NOISE","DIXONS RETAIL PLC","","1022","CURRYS","CURRYS PLYMOUTH","UNIT A COYPOOL ROAD","COYPOOL RETAIL PARK","PLYMOUTH","DEVON","PL7 4TB","","","","","5890007"
"NOISE","DIXONS RETAIL PLC","","1022","CURRYS","CURRYS PORTSMOUTH","5  OCEAN RETAIL PARK","BURRFIELDS ROAD","PORTSMOUTH","HAMPSHIRE","PO3 5NP","","","","","5890007"
"NOISE","DIXONS RETAIL PLC","","1022","CURRYS","CURRYS ROMFORD","UNIT A EASTERN AVENUE WEST","","ROMFORD","ESSEX","RM1 4QL","","","","","5890007"
"NOISE","DIXONS RETAIL PLC","","1022","CURRYS","CURRYS SCUNTHORPE","LAKESIDE RETAIL PARK","","SCUNTHORPE","SOUTH HUMBERSIDE","DN16 3UA","01724 849314","","","","5890007"
"NOISE","DIXONS RETAIL PLC","","1022","CURRYS","CURRYS SELLYOAK","UNIT 2B BATTERY RETAIL PARK","SELLYOAK","BIRMINGHAM","","B29 6SJ","01214 605261","","","","5890007"
"NOISE","DIXONS RETAIL PLC","","1022","CURRYS","CURRYS SKEGNESS","SKEGNESS RETAIL PARK","WAINFLEET ROAD","SKEGNESS","","PE25 3ST","01754 897481","","","","5890007"
"NOISE","DIXONS RETAIL PLC","","1022","CURRYS","CURRYS SOLIHULL","SOLIHULL GATE RETAIL PARK  STRATFORD RD","SOLIHULL","BIRMINGHAM","","B90 4BA","0121 733 4431","","","","5890007"
"NOISE","DIXONS RETAIL PLC","","1022","CURRYS","CURRYS ST HELENS","UNIT 11 RAVENHEAD RETAIL PARK","","ST HELENS","MERSEYSIDE","WA9 1JJ","","","","","5890007"
"NOISE","DIXONS RETAIL PLC","","1022","CURRYS","CURRYS STECHFORD","UNIT H  STECHFORD RETAIL PARK","","BIRMINGHAM","","B33 8BT","0121 784 0308","","","","5890007"
"NOISE","DIXONS RETAIL PLC","","1022","CURRYS","CURRYS STEVENAGE","ROARING MEG SOUTH","","STEVENAGE","HERTFORDSHIRE","SG1 1XN","01438 743655","","","","5890007"
"NOISE","DIXONS RETAIL PLC","Telefaults","1022","CURRYS","CURRYS STOKE-ON-TRENT","UNIT 1","FESTIVAL HEIGHTS RETAIL PARK","STOKE-ON-TRENT","STAFFORDSHIRE","ST1 5NZ","","","","","5890007"
"NOISE","DIXONS RETAIL PLC","","1022","CURRYS","CURRYS THURROCK","UNIT A2 LAKESIDE RETAIL PARK","","THURROCK","ESSEX","RM20 1WN","","","","","5890007"
"NOISE","DIXONS RETAIL PLC","","1022","CURRYS","CURRYS TUNBRIDGE WELLS","UNIT A GREAT LODGE RETAIL PARK","TUNBRIDGE ROAD","TUNBRIDGE WELLS","KENT","TN2 3EW","","","","","5890007"
"NOISE","DIXONS RETAIL PLC","","1022","CURRYS","CURRYS WEDNESBURY","GALLAGHER RETAIL PARK","AXLETREE WAY","WEDNESBURY","WEST MIDLANDS","WS10 9QY","","","","","5890007"
"NOISE","DIXONS RETAIL PLC","","1022","CURRYS","CURRYS WORKSOP","UNIT 1 BABBAGE WAY","","WORKSOP","","S80 1UJ","01909 501577","","","","5890007"
"NOISE","DIXONS RETAIL PLC","","1022","CURRYS","CURRYS YORK","UNIT 8 A/B","CLIFTON MOOR RETAIL PARK","YORK","NORTH YORKSHIRE","YO30 4XU","","","","","5890007"
"NOISE","","BIRMINGHAM SPECIALISED SERVICES","1024","D K AUDIO","D K AUDIO VISUAL SERVICES","17 GATWICK METRO CENTRE","BALCOMBE ROAD","HORLEY","SURREY","RH6 9GA","020 8687 8850","","horleytech@dkavs.co.uk","DAVE KING","5890104"
"NOISE","","","1025","D.A.S.A.","D.A.S.A.","2ND FLOOR  145-157 ST JOHN STREET","","LONDON","","EC1V 4PY","","","","","5890116"
"NOISE","","MTV SERVICE","1026","DAVID BURY","DAVID BURY LTD","70 PASTURE STREET","","GRIMSBY","","DN32 9ER","01472 356 031","","","","5890113"
"NOISE","","","1027","DIGITAL REPAIR SERVICES","DIGITAL REPAIR SERVICES LTD","1A UPPER HOLLIGDEAN ROAD","","BRIGHTON","EAST SUSSEX","BN50 9AH","8443356449","","","LYNN ROGERS","5890129"
"NOISE","","","1028","DSGI","DIXONS RETAIL PLC","MAYLANDS AVENUE","","HEMEL HEMPSTEAD","HERTFORDSHIRE","HP2 7TG","01727 202732","","support@thenoiseuk.com","","5890007"
"NOISE","OLDRID & CO LTD","","1029","DOWNTOWN","DOWNTOWN BOSTON","WYBERTON CHAIN BRIDGE","A52","BOSTON","LINCOLNSHIRE","PE21 7NL","","","support@thenoiseuk.com","","5890115"
"NOISE","OLDRID & CO LTD","","1029","DOWNTOWN","DOWNTOWN SUPERSTORE","GONERBY MOOR","A1","GRANTHAM","LINCOLNSHIRE","NG32 2AB","01476 590239","","support@thenoiseuk.com","","5890115"
"NOISE","","DBS Service Centre (Newcastle)","1030","GATESHEAD SONY CENTRE","GATESHEAD SONY CENTRE (SHASONIC)","12 METROCENTRE","","GATESHEAD","TYNE & WEAR","NE11 9YP","","","","","5890100"
"NOISE","","DSC","1031","GLASGOW AUDIO","GLASGOW AUDIO LTD","135 GREAT WESTERN RD","","GLASGOW","","G4 9AH","0141 332 4707","","","DAVID MCMILLAN","5890102"
"NOISE","","DSC","1032","GLASGOW CAMCORDER CENTRE","GLASGOW CAMCORDER CENTRE","717A GREAT WESTERN RD","","GLASGOW","STRATHCLYDE","G12 8QX","0141 339 3722","0141 339 5497","john@camcordercentre.com","JOHN CONWAY","5890052"
"NOISE","","DSC","1033","GLASGOW SONY CENTRE","GLASGOW SONY CENTRE (SHAWLANDS)","1088 POLLOKSHAWS RD","","GLASGOW","LANARKSHIRE","G41 3XA","0141 649 4758","","","","5890053"
"NOISE","","BIRMINGHAM SPECIALISED SERVICES","1034","GLOUCESTER SONY CENTRE","GLOUCESTER SONY CENTRE","EASTGATE STREET","","GLOUCESTER","GLOUCESTERSHIRE","GL1 1PD","01452 500 005","","gloucester@sonycentres.co.uk","","500005"
"NOISE","","REPAIR GUYS","1035","HATCHERS & SONS","HATCHERS & SONS LTD","11 - 15 HIGH STREET","","TAUNTON","SOMERSET","TA1 3PQ","01823 272824","","support@thenoiseuk.com","TRACEY OR TOM","5890026"
"NOISE","","","1036","HOME APPLIANCE GUARD","HOME APPLIANCE GUARD","KINGSLAND HOUSE","21 HINTON ROAD","BOURNEMOUTH","","BH1 2DE","01202 585598","","scheduler@homeapplianceguard.co.uk","LISA MARLING","5890043"
"NOISE","","Gwynne TV","1107","HOME CINEMA STORE BASILDON","HOME CINEMA STORE BASILDON","58-60 EAST WALK","","BASILDON","ESSEX","SS14 1HE","01268 273 396","","support@thenoiseuk.com","","5890022"
"NOISE","","Gwynne TV","1108","HOME CINEMA STORE ROMFORD","HOME CINEMA STORE ROMFORD","14A THE BREWERY","","ROMFORD","ESSEX","RM1 1AU","01708 744 900","","support@thenoiseuk.com","","5890023"
"NOISE","","","1038","INTEGREX","INTEGREX LTD","PORTWOOD INDUSTRIAL ESTATE","CHURCH GRESLEY","SWADLINCOTE","","DE11 9PT","01283 551551","","kc@integrex.co.uk","KAYLEIGH CHAPMAN","5890130"
"NOISE","","JF Associates","1039","J F ASSOCIATES","J F ASSOCIATES","7 BOUNDARY BUSINESS PARK","","GARSINGTON","OXFORDSHIRE","OX44 9EJ","01865 361660","","info@jfa.org.uk","JIM FORREST","5890025"
"NOISE","","GENSERVE","1040","JOHN LEWIS AT HOME (SWINDON)","JOHN LEWIS AT HOME (SWINDON)","MANNINGTON RETAIL PARK","TELFORD WAY","SWINDON","WILTSHIRE","SN5 8WA","01793 733180","","","","5890082"
"NOISE","","REPAIR GUYS","1041","JOHN LEWIS PARTNERSHIP","JOHN LEWIS PARTNERSHIP","171 VICTORIA STREET","","LONDON","","SW1E 5NN","","","","","5890086"
"NOISE","","ANCRUM","1042","JOHN ROSS","JOHN ROSS AV","13 CHARLOTTE STREET","","PERTH","","PH1 5LW","01738 566566","","","","5890240"
"NOISE","","DSC","1043","JOHN TAYLOR","JOHN TAYLOR OF GIFFNOCK","174 FENWICK RD","","GIFFNOCK","","G46 6XD","0141 620 2038","","","","5890051"
"NOISE","","Electronic Services","1044","JONES TELEVISION","JONES TELEVISION","PRESWYLSA","NANTGAREDIG","NR CARMARTHEN","","SA32 7NH","","","","","5890245"
"NOISE","","BIRMINGHAM SPECIALISED SERVICES","1045","KIDDERMINSTER SONY CENTRE","KIDDERMINSTER SONY CENTRE","UNIT 4 WEAVER WHARF","","KIDDERMINSTER","","DY10 1AA","1562827100","","","MATT YOUNG","5890124"
"NOISE","","ANCRUM","1046","KK ELECTRICS","KK ELECTRICS","158 SOUTH STREET","","ST ANDREWS","","KY16 9EQ","01334 475204","01334 461149","","","5890241"
"NOISE","","JF Associates","1047","LAKES","LAKES","MARISH WHARF","ST. MARYS ROAD","SLOUGH","BERKSHIRE","SL3 6DA","01753 211032","","info@jfa.org.uk","","5890024"
"NOISE","","BIRMINGHAM SPECIALISED SERVICES","1048","LEAMINGTON SONY CENTRE","LEAMINGTON SONY CENTRE","5 LOWER MALL","","LEAMINGTON SPA","WARWICKSHIRE","CV32 4XU","01926 888511","","leamington_spa@sonycentres.co.uk","","888511"
"NOISE","","BIRMINGHAM SPECIALISED SERVICES","1049","LICHFIELD SONY CENTRE","LICHFIELD SONY CENTRE","UNIT 1C THREE SPIRES SHOPPING CENTRE","","LICHFIELD","","WS14 6NG","1543415486","","","PETE SILLENCE","5890126"
"NOISE","","MTV SERVICE","1050","LINCOLN SONY CENTRE","LINCOLN SONY CENTRE","335 HIGH STREET","","LINCOLN","","LN5 7BN","01522 544464","","","","5890091"
"NOISE","","","1051","LOEWE UK","LOEWE UK LTD","CENTURY COURT  RIVERSIDE WAY","RIVERSIDE BUSINESS PARK","IRVINE","AYRSHIRE","KA11 5DD","01294 315000","","","PATRICIA SMITH","5890105"
"NOISE","","MTV SERVICE","1052","LORD BROTHERS MABLETHORPE","LORD BROTHERS MABLETHORPE","100/112 VICTORIA ROAD","","MABLETHORPE","LINCOLNSHIRE","LN12 2AJ","01507 472691","01507 477096","","","5890117"
"NOISE","","","1106","MAKRO","MAKRO","LIVERPOOL ROAD  BARTON MOSS","ECCLES","MANCHESTER","LANCASHIRE","M30 7RT","","","","","5890047"
"NOISE","","Gwynne TV","1053","MATTHEWS","MATTHEWS","97 FOXHALL ROAD","","IPSWICH","SUFFOLK","IP3 8JY","01473 213121","","support@thenoiseuk.com","PAULINE WALKER","5890016"
"NOISE","","DBS Service Centre (Newcastle)","1054","MIDDLESBROUGH SONY CENTRE","MIDDLESBROUGH SONY CENTRE (SHASONIC)","7 CAPTAIN COOK SQUARE","","MIDDLESBROUGH","NORTH YORKSHIRE","TS1 5UB","","","","","5890101"
"NOISE","","","1055","NEW ASURION","NEW ASURION","CHISWICK PLACE","272 GUNNERSBURY AVENUE","CHISWICK","","W4 5QB","","","","CHRIS MARCH","5890083"
"NOISE","","DBS Service Centre (Newcastle)","1056","NEWCASTLE SONY CENTRE","NEWCASTLE SONY CENTRE (SHASONIC)","UNIT 15 A B C  LEVEL 1","PERCY STREET","NEWCASTLE UPON TYNE","TYNE & WEAR","NE1 4PW","","","","","5890098"
"NOISE","","","1057","OLDRID & CO","OLDRID & CO LTD","11 STRAIT BARGATE","","BOSTON","LINCOLNSHIRE","PE21 6UF","","","support@thenoiseuk.com","","5890115"
"NOISE","OLDRID & CO LTD","","1057","OLDRID & CO","OLDRIDS BOSTON","11 STRAIT BARGATE","","BOSTON","LINCOLNSHIRE","PE21 6UF","01205 361251","","support@thenoiseuk.com","","5890115"
"NOISE","","","1058","PANASONIC PROFESSIONAL","PANASONIC PROFESSIONAL","WHARFDALE ROAD","PENTWYN INDUSTRIAL ESTATE","CARDIFF","","CF23 7XB","02920 542262","02920 541513","support@thenoiseuk.com","DONALD MAIDMENT","5890003"
"NOISE","","DSC","1059","PANASONIC STORE GLASGOW","PANASONIC STORE GLASGOW","177 BYRES RD","","GLASGOW","STRATHCLYDE","G12 8TS","0141 339 2223","0141 357 3008","sales@shopatpanasonic-glasgow.co.uk","CHRIS ROSSI","5890049"
"NOISE","","DUNCANS TV","1060","PANASONIC STORE INVERNESS","PANASONIC STORE INVERNESS","112 ACADEMY STREET","","INVERNESS","","IV1 1LX","","","support@thenoiseuk.com","","5890035"
"NOISE","DIXONS RETAIL PLC","","1061","PC WORLD","PC WORLD ABERDEEN","48-50 HUTCHEON STREET","","ABERDEEN","SCOTLAND","AB25 3TB","","","","","5890007"
"NOISE","DIXONS RETAIL PLC","","1061","PC WORLD","PC WORLD BECKTON","GATEWAY RETAIL PARK","CLAPSGATE LANE","BECKTON","LONDON","E6 6LG","","","","","5890007"
"NOISE","DIXONS RETAIL PLC","","1061","PC WORLD","PC WORLD BIRMINGHAM","UNIT 1 UPPER CONYBERE STREET","HIGHGATE  MIDDLEWAY","BIRMINHAM","","B12 0EB","01214 462 114","","","","5890007"
"NOISE","DIXONS RETAIL PLC","","1061","PC WORLD","PC WORLD BIRMINGHAM SELLYOAK","UNIT 2A BATTERY RETAIL PARK","SELLYOAK","BIRMINGHAM","WEST MIDLANDS","B29 6SJ","","","","","5890007"
"NOISE","DIXONS RETAIL PLC","","1061","PC WORLD","PC WORLD BIRMINGHAM J9","UNIT A AXLETREE WAY","WEDNESBURY","BIRMINGHAM","","WS10 9QY","0121 506 3701","","","","5890007"
"NOISE","DIXONS RETAIL PLC","","1061","PC WORLD","PC WORLD CROYDON","2 TROJAN WAY","","CROYDON","SURREY","CR0 4XL","","","","","5890007"
"NOISE","DIXONS RETAIL PLC","","1061","PC WORLD","PC WORLD DONCASTER","UNIT 2 DANUM RETAIL PARK","YORK ROAD","DONCASTER","SOUTH YORKSHIRE","DN5 8AS","","","","","5890007"
"NOISE","DIXONS RETAIL PLC","","1061","PC WORLD","PC WORLD EDINBURGH","1-17 GLASGOW ROAD","CORSTOPHINE","EDINBURGH","SCOTLAND","EH12 8HW","","","","","5890007"
"NOISE","DIXONS RETAIL PLC","","1061","PC WORLD","PC WORLD FARNBOROUGH","26 BRACKNELL BUILDINGS","WESTMEAD","FARNBOROUGH","HAMPSHIRE","GU14 7RY","","","","","5890007"
"NOISE","DIXONS RETAIL PLC","","1061","PC WORLD","PC WORLD IPSWICH","THE INTERCHANGE RETAIL PARK","","IPSWICH","SUFFOLK","IP8 3TT","","","","","5890007"
"NOISE","DIXONS RETAIL PLC","","1061","PC WORLD","PC WORLD LEEDS","UNIT3 JUNCTION ONE RETAIL PARK","BEESTON RING ROAD","LEEDS","WEST YORKSHIRE","LS11 0BD","","","","","5890007"
"NOISE","DIXONS RETAIL PLC","","1061","PC WORLD","PC WORLD LEICESTER","UNTI C FOSSE PARK SOUTH","EVERARD WAY","LEICESTER","LEICESTERSHIRE","LE19 1UT","","","","","5890007"
"NOISE","DIXONS RETAIL PLC","","1061","PC WORLD","PC WORLD LISBURN","UNIT 2 SPRUCEFIELD RETAIL PARK","","LISBURN","NORTHERN IRELAND","BT27 5UQ","","","","","5890007"
"NOISE","DIXONS RETAIL PLC","","1061","PC WORLD","PC WORLD LONDON","U1 STAPLES CORNER RETAIL PARK","GERON WAY","LONDON","GREATER LONDON","NW2 6LW","","","","","5890007"
"NOISE","DIXONS RETAIL PLC","","1061","PC WORLD","PC WORLD LUTON","UNTI 1 MADFORD RETAIL PARK","DUNSTABLE ROAD","LUTON","BEDFORDSHIRE","LU4 8DN","","","","","5890007"
"NOISE","DIXONS RETAIL PLC","","1061","PC WORLD","PC WORLD MERRYHILL","MERRYHILL CENTRE","BRIERLEY HILL","DUDLEY","WEST MIDLANDS","DY5 1SY","01384 70789","","","","5890007"
"NOISE","DIXONS RETAIL PLC","","1061","PC WORLD","PC WORLD NORWICH","UNTI 5 SWEETBRIAR RETAIL PARK","","NORWICH","NORFOLK","NR6 5DH","","","","","5890007"
"NOISE","DIXONS RETAIL PLC","","1061","PC WORLD","PC WORLD NOTTINGHAM","CASTLE MEADOWS RETAIL PARK","BRIDGE ROAD","NOTTINGHAM","NOTTINGHAMSHIRE","NG7 1GX","","","","","5890007"
"NOISE","DIXONS RETAIL PLC","","1061","PC WORLD","PC WORLD PLYMOUTH","UNIT B MARSH MILLS RETAIL PARK","LONGBRIDGE ROAD","PLYMOUTH","DEVON","PL6 8LR","","","","","5890007"
"NOISE","DIXONS RETAIL PLC","","1061","PC WORLD","PC WORLD PORTSMOUTH","OCEAN RETAIL PARK","BURRFIELDS ROAD","PORTSMOUTH","HAMPSHIRE","PO3 5NP","","","","","5890007"
"NOISE","DIXONS RETAIL PLC","","1061","PC WORLD","PC WORLD READING","1-2 BRUNEL RETAIL PARK","ROSE KILN LANE","READING","BERKSHIRE","RG2 0JZ","","","","","5890007"
"NOISE","DIXONS RETAIL PLC","","1061","PC WORLD","PC WORLD SELLYOAK","UNIT 2A BATTERY RETAIL PARK","SELLYOAK","BIRMINGHAM","","B29 6SL","01214 152 812","","","","5890007"
"NOISE","DIXONS RETAIL PLC","","1061","PC WORLD","PC WORLD SHEFFIELD","UNIT 4 MEADOWHALL RETAIL PARK","ATTERCLIFFE COMMON","SHEFFIELD","SOUTH YORKSHIRE","S9 2YZ","","","","","5890007"
"NOISE","DIXONS RETAIL PLC","","1061","PC WORLD","PC WORLD SLOUGH","UNIT C WESTGATE RETAIL PARK","BATH ROAD","SLOUGH","BERKSHIRE","SL1 5PS","","","","","5890007"
"NOISE","DIXONS RETAIL PLC","","1061","PC WORLD","PC WORLD SOLIHULL","498 STRATFORD ROAD  SHIRLEY","SOLIHULL","BIRMINGHAM","","B90 4AY","01217 334 401","","","","5890007"
"NOISE","DIXONS RETAIL PLC","","1061","PC WORLD","PC WORLD ST HELENS","RAVENHEAD RETAIL PARK","","ST HELENS","MERSEYSIDE","WA9 1JJ","","","","","5890007"
"NOISE","DIXONS RETAIL PLC","","1061","PC WORLD","PC WORLD STEVENAGE","UNIT 3 ROEBUCK RETAIL PARK","","STEVENAGE","HERTFORDSHIRE","SG1 1XL","","","","","5890007"
"NOISE","DIXONS RETAIL PLC","","1061","PC WORLD","PC WORLD STOCKPORT","PHASE IV THE PEEL CENTRE","","STOCKPORT","CHESHIRE","SK1 2HD","","","","","5890007"
"NOISE","DIXONS RETAIL PLC","","1061","PC WORLD","PC WORLD SWINDON","UNIT15 GREENBRIDGE RETAIL PARK","DRAKES WAY","SWINDON","WILTSHIRE","SN3 3SG","","","","","5890007"
"NOISE","DIXONS RETAIL PLC","","1061","PC WORLD","PC WORLD WALSALL","UNIT A AXLETREE WAY J9","WEDNESBURY","BIRMINGHAM","West Midlands","WS10 9QY","","","","","5890007"
"NOISE","DIXONS RETAIL PLC","","1061","PC WORLD","PC WORLD WEST THURROCK","UNIT 2B LAKESIDE RETAIL PARK","","WEST THURROCK","ESSEX","RM20 1WN","","","","","5890007"
"NOISE","","","1062","PEERLESS","PEERLESS INSTALLATIONS","UNIT 3 WATFORD INTERCHANGE","COLONIAL WAY","WATFORD","HERTFORDSHIRE","WD24 4WP","","","","","5890088"
"NOISE","","BIRMINGHAM SPECIALISED SERVICES","1063","PERFECT HOME","PERFECT HOME","UNIT 3  DRAYTON MANOR BUSINESS PARK","COLESHILL","TAMWORTH","","B78 3TL","01827 282215","","","SIMON","5890243"
"NOISE","","ANCRUM","1064","PERTH SONY CENTRE","PERTH SONY CENTRE","38 SOUTH METHVEN STREET","","PERTH","PERTHSHIRE","PH1 5NU","01735 8638806","","ancrum.manager@gmail.com","","5890246"
"NOISE","","MTV SERVICE","1065","PETER RHODES","PETER RHODES","1 OXFORD STREET","","MARKET RASEN","LINCS","LN8 3AL","01673 215008","","","","5890112"
"NOISE","","","1066","PIXEL INSPIRATION","PIXEL INSPIRATION","UNIT C1 STANLEY RD TRADING ESTATE","STANLEY ROAD","KNUTSFORD","CHESHIRE","WA16 0EG","01565 658 970","","support@pixelinspiration.co.uk","NIKK SMITH","5890122"
"NOISE","","","1067","Play.com","Play.com","","","","","","","","","","5890010"
"NOISE","","Electronic Services","1068","QUINNS SOUND & VISION","QUINNS SOUND & VISION","CASTELL CLOSE  PHOENIX WAY","SWANSEA ENT PARK","SWANSEA","","SA7 9EH","01792 773644","","","KIRSTY JONES","5890054"
"NOISE","","MTV SERVICE","1069","RAYNERS","RAYNERS","136-142 FREEMAN STREET","","GRIMSBY","","DN32 7AN","01472 358766","","support@thenoiseuk.com","DAVID NEIL","5890014"
"NOISE","","JF Associates","1070","READING WAREHOUSES","READING WAREHOUSES","NEW ROAD","","TADLEY","HAMPSHIRE","RG26 3AL","0118981 4188","0118 981 2570","sales@readingwarehouses.co.uk","","5890080"
"NOISE","","BIRMINGHAM SPECIALISED SERVICES","1071","REDDITCH SONY CENTRE","REDDITCH SONY CENTRE","5 PARK WALK","","REDDITCH","WEST MIDLANDS","B97 4HD","01527 626 83","","redditch@sonycentres.co.uk","","62683"
"NOISE","","","1072","REGENERSIS","REGENERSIS PLC","1 JAMES WATT AVENUE","","GLENROTHES","FIFE","KY7 4UA","01592 774704","","kevin.crossland@regenersis.com","KEVIN CROSSLAND","5890138"
"NOISE","","","1073","REPAIR GUYS","REPAIR GUYS","THE REPAIR CENTRE  4 GRACE ROAD (SOUTH)","MARSH BARTON","EXETER","DEVON","EX2 8QE","0871 2006625","","","STEVE PEARSON","5890084"
"NOISE","","","1074","REPAIR TECH","REPAIR TECH","UNIT 4B  WESTFIELD ROAD","","SOUTHAM","WARWICKSHIRE","CV47 0JH","01926 810030","","vikki.clarke@repairtech.co.uk","VIKKI CLARKE","5890119"
"NOISE","","","1075","Retail Digital Networks","Retail Digital Networks Ltd","","","","","","","","","","5890008"
"NOISE","","Gwynne TV","1076","RGB ELECTRICAL SUPERSTORE","RGB ELECTRICAL SUPERSTORE","543-549 HIGH ROAD","","ILFORD","ESSEX","IG1 1TZ","0208 4781 444","","support@thenoiseuk.com","DAVE KUMAR","5890015"
"NOISE","","","1077","RICHER SOUNDS","RICHER SOUNDS","RICHER HOUSE","HANKEY PLACE","LONDON","","SE1 4BB","0161 474 6822","","support@thenoiseuk.com","LINDON BOLT","5890045"
"NOISE","","DSC","1078","ROBERT WHYTE","ROBERT WHYTE LTD","599 SAUCHIEHALL ST","","GLASGOW","LANARKSHIRE","G3 7PQ","","","","","5890050"
"NOISE","","SVS Poole","1079","ROBERTS AERIALS","ROBERTS AERIALS","36 SALISBURY STREET","","BLANDFORD FORUM","DORSET","DT11 7PR","01258 455898","","support@thenoiseuk.com","MARCUS ROBERTS","5890030"
"NOISE","","MTV SERVICE","1080","ROBINSONS OF HORNCASTLE","ROBINSONS OF HORNCASTLE","1 HIGH STREET","","HORNCASTLE","","LN9 5HP","01507 522559","","","","5890107"
"NOISE","","","1081","SAINSBURYS","SAINSBURYS","COVENTRY STORE SUPPORT CENTRE","NORTH VIEW  WALGRAVE TRIANGLE","COVENTRY","","CV2 2SJ","02476 439472","","support@thenoiseuk.com","DANIEL WALDEN","5890046"
"NOISE","","","1082","SANYO UK","SANYO UK","18 COLONIAL WAY","","WATFORD","HERTFORDSHIRE","WD24 4PT","01923 246363","","","","5890044"
"NOISE","","","1083","SATELLITE SECURE","SATELLITE SECURE LTD","12 HIGH STREET","WEALDSTONE","HARROW","","HA3 7AA","0844 800 2954","","info@satellitesecure.co.uk","","5890242"
"NOISE","","REPAIR GUYS","1084","SES ELECTRONIC SERVICES","SES ELECTRONIC SERVICES LTD","8 CHURCH STREET","","STUDLEY","WARWICKSHIRE","B80 7LG","","","support@thenoiseuk.com","RON","5890027"
"NOISE","","MTV SERVICE","1085","SEVENOAKS SOUND & VISION LINCOLN","SEVENOAKS SOUND & VISION LINCOLN","20-22 CORPORATION STREET","","LINCOLN","","LN2 1JG","01522 527397","","","","5890109"
"NOISE","","Keens Services Limited","1086","SHASONIC STEVENAGE","SHASONIC STEVENAGE","UNIT C2 ROEBUCK RETAIL PARK","LONDON ROAD","STEVENAGE","HERTFORDSHIRE","SG1 1XZ","0845 634 0435","","shasonicstevenage@shasonic.co.uk","JOHN COX","5890137"
"NOISE","","MTV SERVICE","1087","SHELBOURNES","SHELBOURNES","PO BOX 9678","","NEWARK","NOTTINGHAMSHIRE","NG24 9GT","0800 3285266","","","","5890111"
"NOISE","","","1088","Shop Direct","Shop Direct","","","","","","","","","","5890009"
"NOISE","","MTV SERVICE","1089","SHOP@PANASONIC LINCOLN","SHOP@PANASONIC LINCOLN","115 HIGH STREET","","LINCOLN","","LN5 7DQ","01522 528577","","","","5890092"
"NOISE","","BIRMINGHAM SPECIALISED SERVICES","1090","SHREWSBURY SONY CENTRE","SHREWSBURY SONY CENTRE","12 CASTLE STREET","","SHREWSBURY","","SY1 2BB","01743 366160","","","ROB MEDLEY","5890128"
"NOISE","","BIRMINGHAM SPECIALISED SERVICES","1091","SOLIHULL SONY CENTRE","SOLIHULL SONY CENTRE","53 MILL LANE","","SOLIHULL","","B91 3AT","0121 7114145","","","","5890141"
"NOISE","","REPAIR GUYS","1092","SQUIRES ELECTRICAL","SQUIRES ELECTRICAL","8-10 HIGH STREET","","TORRINGTON","DEVON","EX38 8HN","01805 622185","","steve.pearson@thenoiseuk.com","STEVE PEARSON","sq01"
"NOISE","","BIRMINGHAM SPECIALISED SERVICES","1093","STAFFORD SONY CENTRE","STAFFORD SONY CENTRE","7-8 MILL STREET","","STAFFORD","","ST16 2AJ","1785222788","","","OWEN PIDDOCK","5890127"
"NOISE","","MTV SERVICE","1094","STUART WALLACE","STUART WALLACE","STATION ROAD","BRANSTON","LINCOLN","","LN4 1LH","01522 791496","","","","5890110"
"NOISE","","DBS Service Centre (Newcastle)","1095","SUNDERLAND SONY CENTRE","SUNDERLAND SONY CENTRE (SHASONIC)","63 FAWCETT STREET","","SUNDERLAND","TYNE & WEAR","SR1 1SE","","","","","5890099"
"NOISE","","MTV SERVICE","1096","SUPERFI LINCOLN","SUPERFI LINCOLN","271 HIGH STREET","","LINCOLN","","LN2 1JG","01522 520265","","","","5890108"
"NOISE","","BIRMINGHAM SPECIALISED SERVICES","1097","SUTTON COLDFIELD SONY CENTRE","SUTTON COLDFIELD SONY CENTRE","214 GRACECHURCH SHOPPING CENTRE","","SUTTON COLDFIELD","","B72 1PA","1213549646","","","JAMES SWINTON","5890125"
"NOISE","","","1098","TESCO","TESCO","CIRRUS BUILDING C","SHIRE PARK","WELWYN GARDEN CITY","HERTFORDSHIRE","AL7 1ZR","","","","MARTIN SYMCOX","5890048"
"NOISE","","","1099","TOSHIBA INFORMATION SYSTEMS (UK)","TOSHIBA INFORMATION SYSTEMS (UK) LTD","TOSHIBA COURT  WEYBRIDGE BUSINESS PARK","ADDLESTONE ROAD","WEYBRIDGE","SURREY","KT15 2UL","0844 856 0730","","","","5890103"
"NOISE","","","1100","WARRANTY DIRECT","WARRANTY DIRECT","20 BROAD STREET MALL","","READING","BERKSHIRE","RG1 7QE","0800 7317001","","homeclaims@warrantydirect.co.uk","SANDY JENKINSON","5890005"
"NOISE","","","1101","WARRANTY SOLUTIONS","WARRANTY SOLUTIONS","OFFICE 4","219 KENSINGTON HIGH STREET","LONDON","","W8 6BD","07702 863343","","Karen.neagle@warrantysolutions.co.uk","KAREN NEAGLE","5890121"
"NOISE","","VISUAL FX SERVICE CENTRE","1102","WATFORD SONY CENTRE","WATFORD SONY CENTRE","4 CHARTER PLACE","","WATFORD","HERTFORDSHIRE","WD17 2RR","0845 634 0360","","watford@sonycentres.co.uk","","5890057"
"NOISE","","MTV SERVICE","1103","WESTGATE STORE SCUNTHORPE","WESTGATE STORE SCUNTHORPE","28-32 CAROLGATE","","SCUNTHORPE","LINCOLNSHIRE","DN15 6ST","01724 281888","","","","5890078"
"NOISE","","MTV SERVICE","1104","WESTGATE STORE SKEGNESS","WESTGATE STORE SKEGNESS","77-83 LUMLEY ROAD","","SKEGNESS","LINCOLNSHIRE","PE24 3LS","01754 613600","","","","5890079"
"NOISE","","BIRMINGHAM SPECIALISED SERVICES","1105","WORCESTER SONY CENTRE","WORCESTER SONY CENTRE","9 THE SHAMBLES","","WORCESTER","WORCESTERSHIRE","WR1 2RF","01905 613218","","worcester@sonycentres.co.uk","","613218"