<?xml version="1.0" encoding="utf-8"?>
<!-- Generator: Adobe Illustrator 15.1.0, SVG Export Plug-In . SVG Version: 6.00 Build 0)  -->
<!DOCTYPE svg PUBLIC "-//W3C//DTD SVG 1.1//EN" "http://www.w3.org/Graphics/SVG/1.1/DTD/svg11.dtd">
<svg version="1.1" id="Layer_1" xmlns="http://www.w3.org/2000/svg" xmlns:xlink="http://www.w3.org/1999/xlink" x="0px" y="0px"
	 width="100%" height="100%" viewBox="0 0 180.229 108.611" enable-background="new 0 0 180.229 108.611"
	 xml:space="preserve">
<g>
	<defs>
		<rect id="SVGID_1_" x="0.09" y="0.341" width="100%" height="100%"/>
	</defs>
	<clipPath id="SVGID_2_">
		<use xlink:href="#SVGID_1_"  overflow="visible"/>
	</clipPath>
	<g clip-path="url(#SVGID_2_)">
		<g>
			<defs>
				<rect id="SVGID_3_" x="-2.149" y="-1.693" width="182.527" height="109.997"/>
			</defs>
			<clipPath id="SVGID_4_">
				<use xlink:href="#SVGID_3_"  overflow="visible"/>
			</clipPath>
			<g clip-path="url(#SVGID_4_)">
				<g>
					<defs>
						<rect id="SVGID_5_" x="-27.468" y="-22.961" width="230.896" height="145.831"/>
					</defs>
					<clipPath id="SVGID_6_">
						<use xlink:href="#SVGID_5_"  overflow="visible"/>
					</clipPath>
					<g clip-path="url(#SVGID_6_)">
						<g>
							<defs>
								<rect id="SVGID_7_" x="-18.601" y="-12.094" width="602.87" height="852.625"/>
							</defs>
							<clipPath id="SVGID_8_">
								<use xlink:href="#SVGID_7_"  overflow="visible"/>
							</clipPath>
							<g clip-path="url(#SVGID_8_)">
								<rect x="0.09" y="0.341" fill="#6DCFF6" width="180.32" height="101.095"/>
								<text transform="matrix(1 0 0 1 45.4685 96.1062)" fill="#FFFFFF" font-family="'Pirulen'" font-size="22.243">SKYLINE</text>
								<g>
									<rect x="26.561" y="59.778" fill="#BCE6FB" width="12.605" height="12.604"/>
									<rect x="32.865" y="66.079" fill="#00C1F3" width="12.603" height="12.605"/>
								</g>
							</g>
						</g>
					</g>
				</g>
			</g>
		</g>
	</g>
</g>
</svg>
